[gd_scene load_steps=4 format=2]

[ext_resource path="res://entities/Card/cardpainting.png" type="Texture" id=1]
[ext_resource path="res://entities/Card/Card.gd" type="Script" id=2]
[ext_resource path="res://ui/font/new_dynamicfont.tres" type="DynamicFont" id=3]

[node name="Card" type="TextureRect"]
margin_right = 200.0
margin_bottom = 250.0
rect_min_size = Vector2( 200, 250 )
texture = ExtResource( 1 )
expand = true
script = ExtResource( 2 )

[node name="MarginContainer" type="MarginContainer" parent="."]
anchor_top = 1.0
anchor_right = 1.0
anchor_bottom = 1.0
margin_top = -23.0
custom_constants/margin_right = 20
custom_constants/margin_left = 20
custom_constants/margin_bottom = 5

[node name="Stats" type="HBoxContainer" parent="MarginContainer"]
margin_left = 20.0
margin_right = 180.0
margin_bottom = 18.0

[node name="Attack" type="Label" parent="MarginContainer/Stats"]
margin_right = 148.0
margin_bottom = 18.0
size_flags_horizontal = 3
custom_fonts/font = ExtResource( 3 )
text = "10"

[node name="Defense" type="Label" parent="MarginContainer/Stats"]
margin_left = 152.0
margin_right = 160.0
margin_bottom = 18.0
custom_fonts/font = ExtResource( 3 )
text = "7"
align = 2
